<?php
namespace DataAPI;

class Module
{

    public function getAutoloaderConfig()
    {
        return array(
            'Zend\Loader\StandardAutoloader' => array(
                'namespaces' => array(__NAMESPACE__ => __DIR__ . '/src/' . __NAMESPACE__)
            )
        );
    }

    public function getConfig()
    {
        return include __DIR__ . '/config/module.config.php';
    }

    public function getServiceConfig()
    {
        return array(
                'factories' => array(
                    'DataAPI' => function ($sm){
                        return new \DataAPI\Model\DataAPIMain($sm);
                    }
                )
            );
    }
}
